21

6 3
13
t 2 1 n
r 3 0 n
f 0 0 w
r 4 0 n
t 3 2 n
h 0 2 n
f 4 2 w
r 0 2 s
r 2 2 n
t 2 1 s
f 5 1 s
r 2 1 e
h 4 1 n
7 19

5 18
14
r 2 15 e
t 1 16 w
h 4 0 w
h 3 12 n
t 2 1 n
f 2 5 n
h 2 12 s
f 1 15 w
f 0 6 s
h 1 10 e
h 3 3 s
r 0 2 e
f 0 1 s
r 2 16 e
12 12

13 2
2
h 7 0 n
t 1 1 w
8 2

14 3
13
t 0 2 s
r 0 0 e
t 2 1 n
h 6 0 e
f 9 0 w
h 13 2 w
f 1 1 e
t 5 0 e
r 10 1 s
f 9 2 w
t 2 0 s
t 9 2 e
h 7 1 w
14 4

11 5
20
h 10 3 e
r 1 0 n
h 4 2 n
h 2 2 e
h 2 4 e
r 9 1 s
f 1 3 e
h 2 0 w
r 6 4 n
r 2 3 e
h 5 1 n
t 5 4 e
f 9 2 n
h 7 2 s
r 9 3 w
r 9 2 n
h 9 1 e
t 0 2 w
f 10 0 e
t 9 0 s
15 4

4 16
16
h 1 12 e
r 3 8 w
t 3 3 e
r 0 14 w
r 2 6 w
f 2 13 e
f 0 5 e
r 0 15 n
h 0 8 s
t 1 9 w
t 3 1 s
t 1 0 n
t 2 4 e
t 2 0 e
f 2 11 s
h 3 2 n
5 1

17 3
15
t 3 1 e
f 15 0 e
f 14 1 e
h 16 2 w
f 1 1 e
t 6 2 n
r 16 1 s
h 1 1 e
r 10 0 e
r 7 0 e
r 0 1 w
f 15 2 n
t 1 0 s
h 6 1 e
t 11 2 s
19 6

4 15
17
t 2 3 e
r 0 2 e
t 0 11 n
r 0 3 w
h 2 12 w
f 2 3 n
f 3 8 n
r 0 5 e
r 2 2 w
t 1 7 e
t 0 1 n
h 1 5 e
f 2 1 n
t 0 7 w
r 3 0 e
f 2 12 w
f 0 12 s
18 3

15 15
12
h 14 14 n
r 0 7 e
h 14 14 w
f 1 9 w
t 6 4 e
r 3 11 s
r 1 0 w
t 13 10 w
f 9 5 n
h 10 8 w
f 5 11 w
f 14 4 n
18 6

1 11
11
r 0 0 e
t 0 4 s
r 0 1 s
t 0 5 n
t 0 5 e
f 0 9 w
t 0 7 w
h 0 3 n
f 0 3 w
t 0 7 s
h 0 9 w
11 4

18 8
12
h 16 6 e
t 14 7 e
r 4 2 e
r 13 6 w
r 13 3 s
r 15 1 s
h 0 7 w
r 10 1 n
f 5 6 s
f 14 6 w
r 13 1 w
t 10 1 n
3 1

3 5
2
h 2 1 n
h 1 2 n
10 2

3 7
3
t 0 5 s
t 1 1 s
r 1 0 e
15 5

8 6
1
t 1 5 e
12 2

15 20
5
r 2 3 e
r 8 13 s
r 0 4 w
h 2 6 e
h 3 17 w
11 6

11 2
8
f 10 1 s
h 9 1 e
h 4 1 n
r 10 1 s
t 7 0 e
r 5 1 e
f 8 1 e
t 0 1 s
10 2

2 8
4
h 0 1 s
h 1 1 s
h 1 1 e
h 0 6 w
2 1

9 15
13
t 2 12 n
t 7 9 n
r 8 11 w
t 4 13 s
r 5 10 e
f 1 9 e
r 8 2 e
t 7 11 e
f 1 1 w
h 0 11 n
h 6 2 e
f 8 7 s
t 0 2 e
3 1

17 5
8
f 1 1 w
t 11 1 w
t 3 1 s
f 3 2 n
r 10 4 s
f 2 4 n
t 11 4 w
r 12 3 n
8 2

11 1
6
t 9 0 n
h 2 0 e
f 4 0 s
r 2 0 e
h 4 0 n
t 0 0 n
10 3

20 8
16
r 5 3 n
h 13 2 e
h 1 6 s
t 17 5 s
r 5 0 n
h 10 3 s
f 11 3 w
t 17 1 n
h 4 0 e
t 3 7 e
t 7 7 n
f 16 3 e
t 11 7 w
t 14 6 s
f 13 0 n
r 7 0 w
8 4
