*** Darwin 10x7 ***
Turn = 0.
  0123456
0 ..t....
1 .......
2 ...t..t
3 ...r...
4 .......
5 .......
6 ...h...
7 .......
8 .ft....
9 .....r.

Turn = 80.
  0123456
0 ..t....
1 .......
2 ...t..t
3 .......
4 .......
5 .......
6 .......
7 .......
8 .ttt...
9 ..tt...

Turn = 160.
  0123456
0 ..t....
1 .......
2 ...t..t
3 .......
4 .......
5 .......
6 .......
7 .......
8 .ttt...
9 ..tt...

Turn = 240.
  0123456
0 ..t....
1 .......
2 ...t..t
3 .......
4 .......
5 .......
6 .......
7 .......
8 .ttt...
9 ..tt...

*** Darwin 10x8 ***
Turn = 0.
  01234567
0 ........
1 ........
2 ..h.....
3 ........
4 ........
5 .....f..
6 f.......
7 ......t.
8 ........
9 ........

Turn = 174.
  01234567
0 ........
1 ........
2 .......h
3 ........
4 ........
5 .....f..
6 f.......
7 ......t.
8 ........
9 ........

*** Darwin 4x5 ***
Turn = 0.
  01234
0 ..r..
1 hff..
2 .....
3 ..ht.

Turn = 161.
  01234
0 h....
1 .ff..
2 ..h..
3 ...tt

Turn = 322.
  01234
0 h....
1 .ff..
2 ..h..
3 ...tt

*** Darwin 10x4 ***
Turn = 0.
  0123
0 ....
1 r..r
2 ....
3 ....
4 ....
5 ..t.
6 ..h.
7 ....
8 ...r
9 f...

Turn = 197.
  0123
0 ....
1 ....
2 ....
3 ....
4 ...t
5 ...t
6 ...t
7 ..tt
8 ...t
9 ....

*** Darwin 9x6 ***
Turn = 0.
  012345
0 .h..h.
1 ......
2 ......
3 .t....
4 ......
5 ......
6 ......
7 ......
8 .....r

*** Darwin 7x8 ***
Turn = 0.
  01234567
0 ......th
1 ........
2 ........
3 ......f.
4 ..f.....
5 ........
6 ........

Turn = 69.
  01234567
0 ......tt
1 ........
2 ........
3 ......f.
4 ..f.....
5 ........
6 ........

Turn = 138.
  01234567
0 ......tt
1 ........
2 ........
3 ......f.
4 ..f.....
5 ........
6 ........

Turn = 207.
  01234567
0 ......tt
1 ........
2 ........
3 ......f.
4 ..f.....
5 ........
6 ........

*** Darwin 7x10 ***
Turn = 0.
  0123456789
0 h.........
1 ..t..r....
2 ..........
3 ..........
4 ..........
5 ..........
6 ..........

*** Darwin 6x7 ***
Turn = 0.
  0123456
0 ..h....
1 ...f.r.
2 .t.....
3 .......
4 ht...f.
5 ....t..

Turn = 131.
  0123456
0 ..h....
1 ...f...
2 .t.....
3 .......
4 .t...f.
5 ttt....

Turn = 262.
  0123456
0 ..h....
1 ...f...
2 .t.....
3 .......
4 .t...f.
5 ttt....

*** Darwin 9x5 ***
Turn = 0.
  01234
0 .....
1 ..rt.
2 ....t
3 .....
4 .....
5 .f...
6 ..t..
7 .....
8 ..h..

*** Darwin 5x8 ***
Turn = 0.
  01234567
0 .....r..
1 .....h..
2 .......r
3 ...h....
4 ........

Turn = 188.
  01234567
0 ........
1 ....r...
2 .....r..
3 ........
4 r......r

*** Darwin 8x9 ***
Turn = 0.
  012345678
0 ..h......
1 .....f...
2 .........
3 .......ff
4 ....h....
5 .........
6 .......h.
7 ..t..f...

Turn = 121.
  012345678
0 ..h.h....
1 .....f...
2 .........
3 .......ff
4 .......h.
5 .........
6 .........
7 ..t..f...

Turn = 242.
  012345678
0 ..h.h....
1 .....f...
2 .........
3 .......ff
4 .......h.
5 .........
6 .........
7 ..t..f...

*** Darwin 8x4 ***
Turn = 0.
  0123
0 ....
1 ....
2 ....
3 ....
4 ....
5 ....
6 h...
7 hf..

Turn = 8.
  0123
0 ....
1 ....
2 ....
3 ....
4 ....
5 ....
6 ...h
7 hf..

Turn = 16.
  0123
0 ....
1 ....
2 ....
3 ....
4 ....
5 ....
6 ...h
7 hf..

Turn = 24.
  0123
0 ....
1 ....
2 ....
3 ....
4 ....
5 ....
6 ...h
7 hf..

Turn = 32.
  0123
0 ....
1 ....
2 ....
3 ....
4 ....
5 ....
6 ...h
7 hf..

Turn = 40.
  0123
0 ....
1 ....
2 ....
3 ....
4 ....
5 ....
6 ...h
7 hf..

Turn = 48.
  0123
0 ....
1 ....
2 ....
3 ....
4 ....
5 ....
6 ...h
7 hf..

Turn = 56.
  0123
0 ....
1 ....
2 ....
3 ....
4 ....
5 ....
6 ...h
7 hf..

Turn = 64.
  0123
0 ....
1 ....
2 ....
3 ....
4 ....
5 ....
6 ...h
7 hf..

Turn = 72.
  0123
0 ....
1 ....
2 ....
3 ....
4 ....
5 ....
6 ...h
7 hf..

Turn = 80.
  0123
0 ....
1 ....
2 ....
3 ....
4 ....
5 ....
6 ...h
7 hf..

Turn = 88.
  0123
0 ....
1 ....
2 ....
3 ....
4 ....
5 ....
6 ...h
7 hf..

Turn = 96.
  0123
0 ....
1 ....
2 ....
3 ....
4 ....
5 ....
6 ...h
7 hf..

Turn = 104.
  0123
0 ....
1 ....
2 ....
3 ....
4 ....
5 ....
6 ...h
7 hf..

*** Darwin 7x10 ***
Turn = 0.
  0123456789
0 ..........
1 ..........
2 .........t
3 ....r....h
4 .....f.h..
5 ff........
6 h.........

Turn = 69.
  0123456789
0 ..........
1 .........t
2 .........t
3 ..........
4 .....f...h
5 ff........
6 h........h

*** Darwin 8x10 ***
Turn = 0.
  0123456789
0 ..........
1 ......f...
2 h..h......
3 ....h.....
4 .......t..
5 ..........
6 ..........
7 .....r....

Turn = 158.
  0123456789
0 r.....r...
1 .......rr.
2 ..........
3 ..........
4 r.........
5 ..........
6 ..........
7 ....r.....

*** Darwin 4x4 ***
Turn = 0.
  0123
0 hhf.
1 ...h
2 ..tr
3 ....

Turn = 129.
  0123
0 ...t
1 ..tt
2 .ttt
3 ....

Turn = 258.
  0123
0 ...t
1 ..tt
2 .ttt
3 ....

*** Darwin 6x8 ***
Turn = 0.
  01234567
0 ........
1 ........
2 ........
3 ......f.
4 ...r....
5 .....f..

*** Darwin 8x8 ***
Turn = 0.
  01234567
0 ..f...r.
1 .....h..
2 ....f...
3 ......r.
4 .h......
5 ........
6 ........
7 ........

Turn = 53.
  01234567
0 r.......
1 ........
2 r...f...
3 ........
4 ........
5 ..r.....
6 ........
7 ....r.r.

Turn = 106.
  01234567
0 ..r....r
1 ........
2 ....f...
3 ........
4 ........
5 ........
6 .......r
7 ......rr

*** Darwin 10x10 ***
Turn = 0.
  0123456789
0 ..f.......
1 ..........
2 ...rt.t...
3 ..........
4 ..t.......
5 ..........
6 ..........
7 ..........
8 .....r....
9 .h........

*** Darwin 7x5 ***
Turn = 0.
  01234
0 .....
1 t....
2 t..tf
3 ..h.t
4 .....
5 .....
6 r..t.

Turn = 84.
  01234
0 .....
1 t....
2 t..tt
3 ...tt
4 .....
5 .....
6 ..tt.

Turn = 168.
  01234
0 .....
1 t....
2 t..tt
3 ...tt
4 .....
5 .....
6 ..tt.

Turn = 252.
  01234
0 .....
1 t....
2 t..tt
3 ...tt
4 .....
5 .....
6 ..tt.

*** Darwin 8x5 ***
Turn = 0.
  01234
0 .....
1 .....
2 .h...
3 ....r
4 .....
5 ....t
6 .....
7 .....

Turn = 80.
  01234
0 .....
1 .....
2 ...rr
3 ..r..
4 .....
5 .....
6 .....
7 .....

Turn = 160.
  01234
0 ..r.r
1 .....
2 .....
3 .....
4 .....
5 .....
6 .....
7 r....

Turn = 240.
  01234
0 .r...
1 .....
2 .....
3 ....r
4 .....
5 .....
6 .....
7 r....

*** Darwin 4x5 ***
Turn = 0.
  01234
0 h....
1 f...t
2 h....
3 .r..t

*** Darwin 8x4 ***
Turn = 0.
  0123
0 ....
1 ..h.
2 ....
3 ....
4 .h..
5 ...h
6 ....
7 ....

Turn = 56.
  0123
0 .h..
1 h...
2 ....
3 ....
4 ....
5 ...h
6 ....
7 ....

Turn = 112.
  0123
0 .h..
1 h...
2 ....
3 ....
4 ....
5 ...h
6 ....
7 ....

*** Darwin 5x10 ***
Turn = 0.
  0123456789
0 ...t......
1 ..........
2 ..........
3 ...t.h.h..
4 .f........

Turn = 13.
  0123456789
0 ...t......
1 ..........
2 ..........
3 ...tt.....
4 .f...h....

Turn = 26.
  0123456789
0 ...t......
1 ..........
2 ..........
3 ...tt.....
4 .f...h....

Turn = 39.
  0123456789
0 ...t......
1 ..........
2 ..........
3 ...tt.....
4 .f...h....

Turn = 52.
  0123456789
0 ...t......
1 ..........
2 ..........
3 ...tt.....
4 .f...h....

Turn = 65.
  0123456789
0 ...t......
1 ..........
2 ..........
3 ...tt.....
4 .f...h....

Turn = 78.
  0123456789
0 ...t......
1 ..........
2 ..........
3 ...tt.....
4 .f...h....

Turn = 91.
  0123456789
0 ...t......
1 ..........
2 ..........
3 ...tt.....
4 .f...h....

Turn = 104.
  0123456789
0 ...t......
1 ..........
2 ..........
3 ...tt.....
4 .f...h....

Turn = 117.
  0123456789
0 ...t......
1 ..........
2 ..........
3 ...tt.....
4 .f...h....

Turn = 130.
  0123456789
0 ...t......
1 ..........
2 ..........
3 ...tt.....
4 .f...h....

Turn = 143.
  0123456789
0 ...t......
1 ..........
2 ..........
3 ...tt.....
4 .f...h....

Turn = 156.
  0123456789
0 ...t......
1 ..........
2 ..........
3 ...tt.....
4 .f...h....

Turn = 169.
  0123456789
0 ...t......
1 ..........
2 ..........
3 ...tt.....
4 .f...h....

Turn = 182.
  0123456789
0 ...t......
1 ..........
2 ..........
3 ...tt.....
4 .f...h....

Turn = 195.
  0123456789
0 ...t......
1 ..........
2 ..........
3 ...tt.....
4 .f...h....

Turn = 208.
  0123456789
0 ...t......
1 ..........
2 ..........
3 ...tt.....
4 .f...h....

*** Darwin 4x9 ***
Turn = 0.
  012345678
0 ...t.....
1 ........r
2 .........
3 ...h.....

Turn = 41.
  012345678
0 ..rr.....
1 ..r......
2 .........
3 .........

Turn = 82.
  012345678
0 ....r...r
1 .........
2 .........
3 r........

Turn = 123.
  012345678
0 .....r...
1 .........
2 .........
3 r...r....

Turn = 164.
  012345678
0 ....r.r..
1 .........
2 .........
3 ........r

Turn = 205.
  012345678
0 rr.......
1 .r.......
2 .........
3 .........

Turn = 246.
  012345678
0 .........
1 r........
2 ........r
3 .......r.

Turn = 287.
  012345678
0 r........
1 ....r....
2 ...r.....
3 .........

Turn = 328.
  012345678
0 .........
1 .........
2 .........
3 ....rrr..

*** Darwin 5x6 ***
Turn = 0.
  012345
0 f.....
1 .f....
2 .....f
3 ..fr..
4 ..h.t.

Turn = 95.
  012345
0 .....r
1 ..r...
2 rrr...
3 r.....
4 .....r

Turn = 190.
  012345
0 r..r.r
1 ......
2 ......
3 ...r..
4 rr...r

Turn = 285.
  012345
0 rr..r.
1 ......
2 ......
3 ....r.
4 r..rr.
